Extrinsic variable selection
…
                                  family = "binomial")
#> Loading required namespace: glmnet
#> Loading required namespace: ranger
#> Warning in predict.lm(object, newdata, se.fit, scale = 1, type = if (type == :
#> prediction from rank-deficient fit; attr(*, "non-estim") has doubtful cases
# check the SL weights
fit$coef
#>        SL.glm_All SL.ranger.imp_All     SL.glmnet_All 
#>         0.0000000         0.7667208         0.2332792
# extract importance based on the whole Super Learner
sl_importance_all <- extract_importance_SL(
  fit = fit, feature_names = x_names, import_type = "all"
)
sl_importance_all
#> # A tibble: 21 × 2
#>    feature                  rank
#>    <chr>                   <dbl>
#>  1 lab3_muc3ac_score        3.33
#>  2 lab6_ab_score            4.10
#>  3 lab1_actb                4.87
#>  4 lab1_telomerase_score    5.63
#>  5 cea                      6.40
#>  6 lab4_glucose_score       7.17
#>  7 lab4_areg_score          7.93
#>  8 lab2_fluorescence_score  8.70
#>  9 lab3_muc5ac_score        9.47
#> 10 lab1_molecules_score    10.2 
#> # ℹ 11 more rows

Using the ensemble weights here means that weight approximately 0.53
is given to the boosted trees, weight approximately 0.47 is given to the
random forest, while weight 0 is given to the logistic regression
model.

To instead look at the importance of the best individual learner, use
the following code:

sl_importance_best <- extract_importance_SL(
  fit = fit, feature_names = x_names, import_type = "best"
)
sl_importance_best
#> # A tibble: 21 × 2
#>    feature                  rank
#>    <chr>                   <dbl>
#>  1 lab3_muc3ac_score           1
#>  2 lab6_ab_score               2
#>  3 lab1_actb                   3
#>  4 lab1_telomerase_score       4
#>  5 cea                         5
#>  6 lab4_glucose_score          6
#>  7 lab4_areg_score             7
#>  8 lab2_fluorescence_score     8
#>  9 lab3_muc5ac_score           9
#> 10 lab1_molecules_score       10
#> # ℹ 11 more rows

In this case, this shows the importance in the boosted trees.

Finally, to do variable selection, we need to select a threshold
(ideally before looking at the data). In this case, since there are only
24 variables, we choose a threshold of 5.

extrinsic_selected <- extrinsic_selection(
  fit = fit, feature_names = x_names, threshold = 5, import_type = "all"
)
extrinsic_selected
#> # A tibble: 21 × 3
#>    feature                  rank selected
#>    <chr>                   <dbl> <lgl>   
#>  1 lab3_muc3ac_score        3.33 TRUE    
#>  2 lab6_ab_score            4.10 TRUE    
#>  3 lab1_actb                4.87 TRUE    
#>  4 lab1_telomerase_score    5.63 FALSE   
#>  5 cea                      6.40 FALSE   
#>  6 lab4_glucose_score       7.17 FALSE   
#>  7 lab4_areg_score          7.93 FALSE   
#>  8 lab2_fluorescence_score  8.70 FALSE   
#>  9 lab3_muc5ac_score        9.47 FALSE   
#> 10 lab1_molecules_score    10.2  FALSE   
#> # ℹ 11 more rows
…
